ftdi_engine/RTL/ftdi_engine_tb.vcd
$date
	Fri Jun 18 23:04:18 2021
$end
$version
	Icarus Verilog
$end
$timescale
	1ps
$end
$scope module ftdi_engine_tb $end
$var wire 8 ! data [7:0] $end
$var wire 8 " data_in [7:0] $end
$var wire 1 # wr_n $end
$var wire 1 $ rd_n $end
$var wire 1 % ext_dev_wr_full $end
$var wire 1 & ext_dev_rd_empty $end
$var wire 8 ' ext_dev_rd_data [7:0] $end
$var reg 1 ( async_rst_n $end
$var reg 8 ) cap_data [7:0] $end
$var reg 1 * clk_ext $end
$var reg 1 + clk_ftdi $end
$var reg 1 , data_oe $end
$var reg 8 - data_out [7:0] $end
$var reg 1 . data_valid $end
$var reg 8 / dev_rd_data [7:0] $end
$var reg 1 0 ext_dev_rd_en $end
$var reg 8 1 ext_dev_wr_data [7:0] $end
$var reg 1 2 ext_dev_wr_en $end
$var reg 1 3 ext_rd_en_delayed $end
$var reg 1 4 rxf_n $end
$var reg 1 5 txe_n $end
$var integer 32 6 k [31:0] $end
$scope module FTDI_ENG_TOP_U1 $end
$var wire 1 ( async_rst_n $end
$var wire 1 * clk_ext $end
$var wire 1 + clk_ftdi $end
$var wire 8 7 data [7:0] $end
$var wire 8 8 data_in [7:0] $end
$var wire 1 0 ext_dev_rd_en $end
$var wire 8 9 ext_dev_wr_data [7:0] $end
$var wire 1 2 ext_dev_wr_en $end
$var wire 1 4 rxf_n $end
$var wire 1 5 txe_n $end
$var wire 1 # wr_n $end
$var wire 1 $ rd_n $end
$var wire 1 : ftdi_wr_fifo_en $end
$var wire 1 ; ftdi_wr_fifo_empty $end
$var wire 8 < ftdi_wr_data [7:0] $end
$var wire 1 = ftdi_rd_fifo_full $end
$var wire 1 > ftdi_rd_fifo_en $end
$var wire 8 ? ftdi_rd_fifo_data [7:0] $end
$var wire 1 % ext_dev_wr_full $end
$var wire 1 & ext_dev_rd_empty $end
$var wire 8 @ ext_dev_rd_data [7:0] $end
$var wire 8 A data_out [7:0] $end
$var wire 1 B data_oe $end
$scope module FTDI_ENGINE_U1 $end
$var wire 1 ( async_rst_n $end
$var wire 1 + clk_i $end
$var wire 8 C data_in [7:0] $end
$var wire 8 D data_out [7:0] $end
$var wire 1 E rxf $end
$var wire 1 4 rxf_n $end
$var wire 1 F txe $end
$var wire 1 5 txe_n $end
$var wire 1 ; ftdi_wr_fifo_empty $end
$var wire 8 G ftdi_wr_data [7:0] $end
$var wire 1 = ftdi_rd_fifo_full $end
$var reg 2 H counter_nxt [1:0] $end
$var reg 2 I counter_reg [1:0] $end
$var reg 8 J data_in_nxt [7:0] $end
$var reg 8 K data_in_reg [7:0] $end
$var reg 1 B data_oe $end
$var reg 1 L data_oe_nxt $end
$var reg 3 M ftdi_eng_state [2:0] $end
$var reg 3 N ftdi_eng_state_nxt [2:0] $end
$var reg 8 O ftdi_rd_fifo_data [7:0] $end
$var reg 1 > ftdi_rd_fifo_en $end
$var reg 1 : ftdi_wr_fifo_en $end
$var reg 1 $ rd_n $end
$var reg 1 P rxf_n_meta $end
$var reg 1 Q rxf_n_synq $end
$var reg 1 R txe_n_meta $end
$var reg 1 S txe_n_synq $end
$var reg 1 # wr_n $end
$var reg 1 T wr_n_nxt $end
$upscope $end
$scope module FTDI_RD_FIFO_U2 $end
$var wire 1 ( async_rst_n $end
$var wire 1 U async_rst_n_rd $end
$var wire 1 V async_rst_n_wr $end
$var wire 1 0 fifo_rd_en $end
$var wire 8 W fifo_wr_data [7:0] $end
$var wire 1 > fifo_wr_en $end
$var wire 1 * rd_clk $end
$var wire 1 X rd_en $end
$var wire 5 Y rd_ptr_nxt_gray [4:0] $end
$var wire 1 + wr_clk $end
$var wire 1 Z wr_en $end
$var wire 5 [ wr_ptr_nxt_gray [4:0] $end
$var wire 5 \ wr_ptr_nxt [4:0] $end
$var wire 4 ] wr_addr [3:0] $end
$var wire 5 ^ rd_ptr_nxt [4:0] $end
$var wire 4 _ rd_addr [3:0] $end
$var wire 8 ` fifo_rd_data [7:0] $end
$var reg 1 a async_rst_n1_rd $end
$var reg 1 b async_rst_n1_wr $end
$var reg 1 c async_rst_n2_rd $end
$var reg 1 d async_rst_n2_wr $end
$var reg 1 & fifo_empty $end
$var reg 1 e fifo_empty_nxt $end
$var reg 1 = fifo_full $end
$var reg 1 f fifo_full_nxt $end
$var reg 5 g rd_ptr [4:0] $end
$var reg 5 h rd_ptr_gray [4:0] $end
$var reg 5 i rd_ptr_ms [4:0] $end
$var reg 5 j rd_ptr_wr [4:0] $end
$var reg 5 k rd_ptr_wr_bin [4:0] $end
$var reg 5 l wr_ptr [4:0] $end
$var reg 5 m wr_ptr_gray [4:0] $end
$var reg 5 n wr_ptr_ms [4:0] $end
$var reg 5 o wr_ptr_rd [4:0] $end
$var reg 5 p wr_ptr_rd_bin [4:0] $end
$var integer 32 q i [31:0] $end
$var integer 32 r j [31:0] $end
$scope module DC_DPRAM_U1 $end
$var wire 4 s rd_addr [3:0] $end
$var wire 1 * rd_clk $end
$var wire 1 X rd_en $end
$var wire 4 t wr_addr [3:0] $end
$var wire 1 + wr_clk $end
$var wire 8 u wr_data [7:0] $end
$var wire 1 Z wr_en $end
$var reg 8 v rd_data [7:0] $end
$upscope $end
$upscope $end
$scope module FTDI_WR_FIFO_U3 $end
$var wire 1 ( async_rst_n $end
$var wire 1 w async_rst_n_rd $end
$var wire 1 x async_rst_n_wr $end
$var wire 1 : fifo_rd_en $end
$var wire 8 y fifo_wr_data [7:0] $end
$var wire 1 2 fifo_wr_en $end
$var wire 1 + rd_clk $end
$var wire 1 z rd_en $end
$var wire 5 { rd_ptr_nxt_gray [4:0] $end
$var wire 1 * wr_clk $end
$var wire 1 | wr_en $end
$var wire 5 } wr_ptr_nxt_gray [4:0] $end
$var wire 5 ~ wr_ptr_nxt [4:0] $end
$var wire 4 !" wr_addr [3:0] $end
$var wire 5 "" rd_ptr_nxt [4:0] $end
$var wire 4 #" rd_addr [3:0] $end
$var wire 8 $" fifo_rd_data [7:0] $end
$var reg 1 %" async_rst_n1_rd $end
$var reg 1 &" async_rst_n1_wr $end
$var reg 1 '" async_rst_n2_rd $end
$var reg 1 (" async_rst_n2_wr $end
$var reg 1 ; fifo_empty $end
$var reg 1 )" fifo_empty_nxt $end
$var reg 1 % fifo_full $end
$var reg 1 *" fifo_full_nxt $end
$var reg 5 +" rd_ptr [4:0] $end
$var reg 5 ," rd_ptr_gray [4:0] $end
$var reg 5 -" rd_ptr_ms [4:0] $end
$var reg 5 ." rd_ptr_wr [4:0] $end
$var reg 5 /" rd_ptr_wr_bin [4:0] $end
$var reg 5 0" wr_ptr [4:0] $end
$var reg 5 1" wr_ptr_gray [4:0] $end
$var reg 5 2" wr_ptr_ms [4:0] $end
$var reg 5 3" wr_ptr_rd [4:0] $end
$var reg 5 4" wr_ptr_rd_bin [4:0] $end
$var integer 32 5" i [31:0] $end
$var integer 32 6" j [31:0] $end
$scope module DC_DPRAM_U1 $end
$var wire 4 7" rd_addr [3:0] $end
$var wire 1 + rd_clk $end
$var wire 1 z rd_en $end
$var wire 4 8" wr_addr [3:0] $end
$var wire 1 * wr_clk $end
$var wire 8 9" wr_data [7:0] $end
$var wire 1 | wr_en $end
$var reg 8 :" rd_data [7:0] $end
$upscope $end
$upscope $end
$upscope $end
$scope task async_reset_generator $end
$upscope $end
$scope task ftdi_read $end
$var reg 8 ;" rx_data [7:0] $end
$upscope $end
$scope task ftdi_write $end
$var reg 8 <" tx_data [7:0] $end
$upscope $end
$upscope $end
$enddefinitions $end
#0
$dumpvars
bx <"
bx ;"
bx :"
bx 9"
bx 8"
bx 7"
bx 6"
bx 5"
bx 4"
bx 3"
bx 2"
bx 1"
bx 0"
bx /"
bx ."
bx -"
bx ,"
bx +"
x*"
x)"
x("
x'"
x&"
x%"
bx $"
bx #"
bx ""
bx !"
bx ~
bx }
x|
bx {
xz
bx y
xx
xw
bx v
bx u
bx t
bx s
bx r
bx q
bx p
bx o
bx n
bx m
bx l
bx k
bx j
bx i
bx h
bx g
xf
xe
xd
xc
xb
xa
bx `
bx _
bx ^
bx ]
bx \
bx [
xZ
bx Y
xX
bx W
xV
xU
xT
xS
xR
xQ
xP
bx O
bx N
bx M
xL
bx K
bx J
bx I
bx H
bx G
xF
xE
bx D
bx C
xB
bx A
bx @
bx ?
x>
x=
bx <
x;
x:
bx 9
bx 8
bx 7
bx 6
15
14
x3
x2
bx 1
x0
bx /
x.
bx -
0,
0+
0*
bx )
x(
bx '
x&
x%
x$
x#
bx "
bx !
$end
#10000
1R
1P
1+
#20000
0*"
0|
0.
02
0+
1*
#30000
0)"
0f
0z
0Z
1$
0:
0>
1T
0L
0F
0E
1S
1Q
1+
#40000
0+
0*
#50000
bz "
bz 8
bz C
bz !
bz 7
0B
1#
0=
0;
1+
#60000
0%
0+
1*
#70000
1+
#80000
0+
0*
#90000
1+
#100000
1a
1&"
0+
1*
1(
#110000
1%"
1b
1+
#120000
0+
0*
#130000
1V
1d
1w
1'"
1+
#140000
1x
1("
1U
1c
0+
1*
#150000
1+
#160000
0+
0*
#170000
1+
#180000
0+
1*
#190000
1+
#200000
0e
b0 J
b0 H
b0 N
0X
b0 K
b0 I
b0 M
b0 1
b0 9
b0 y
b0 9"
03
00
b0 /
0+
0*
0(
#210000
0b
0%"
1+
#220000
0&"
0a
0&
0+
1*
#230000
b1 {
b0 #"
b0 7"
b1 [
b0 ]
b0 t
b0 ,"
1;
b1 ""
b0 +"
b0 m
b1 \
b0 l
0w
0'"
0V
0d
1+
#240000
0+
0*
#250000
1+
#260000
b1 Y
b0 _
b0 s
b1 }
b0 !"
b0 8"
b0 h
1&
b1 ^
b0 g
b0 1"
b1 ~
b0 0"
0U
0c
b0 n
0x
0("
b0 -"
0+
1*
#270000
b0 2"
b0 i
1+
#280000
0+
0*
#290000
1)"
b0 k
b101 q
b0 4"
b101 6"
b0 j
b0 3"
1+
#300000
1e
b0 /"
b101 5"
b0 p
b101 r
b0 ."
1&"
b0 o
1a
0+
1*
1(
#310000
1%"
1b
1+
#320000
0+
0*
#330000
1V
1d
1w
1'"
1+
#340000
1U
1c
1x
1("
0+
1*
#350000
1+
#360000
0+
0*
#370000
1+
#380000
0+
1*
#390000
1+
#400000
0+
0*
04
b1 <"
b0 6
#410000
0P
1+
#420000
0+
1*
#430000
0$
b1 N
1E
0Q
1+
#440000
0+
0*
#445000
0$
b1 N
b1 "
b1 8
b1 C
b1 !
b1 7
b1 -
1,
#450000
b1 H
0$
b1 M
1+
#460000
0+
1*
#470000
b1 J
b10 N
b10 H
0$
b1 I
1+
#480000
0+
0*
#490000
bz "
bz 8
bz C
bz !
bz 7
1Z
14
0,
b101 N
1>
b1 ?
b1 O
b1 W
b1 u
1$
b1 K
b10 I
b10 M
1+
#500000
0+
1*
#510000
0Z
b0 N
0>
b11 [
b1 ]
b1 t
b101 M
1P
b1 m
b10 \
b1 l
1+
#520000
0+
0*
#530000
b0 H
0E
b0 M
1Q
1+
#540000
b1 n
0+
1*
#550000
b0 I
1+
#560000
0+
0*
#565000
04
b10 <"
b1 6
#570000
0P
1+
#580000
0e
b1 p
b101 r
b1 o
0+
1*
#590000
0$
b1 N
1E
0Q
1+
#600000
0+
0*
#605000
0$
b1 N
b10 "
b10 8
b10 C
b10 !
b10 7
b10 -
1,
#610000
b1 H
0$
b1 M
1+
#620000
0&
0+
1*
#630000
b10 J
b10 N
b10 H
0$
b1 I
1+
#640000
0+
0*
#650000
bz "
bz 8
bz C
bz !
bz 7
1Z
14
0,
b101 N
1>
b10 ?
b10 O
b10 W
b10 u
1$
b10 K
b10 I
b10 M
1+
#660000
1e
1X
10
0+
1*
#670000
0Z
b0 N
0>
b10 [
b10 ]
b10 t
b101 M
1P
b11 m
b11 \
b10 l
1+
#680000
0+
0*
#690000
b0 H
0E
b0 M
1Q
1+
#700000
b11 Y
1e
b1 _
b1 s
0X
b11 n
b1 '
b1 @
b1 `
b1 v
b1 h
b10 ^
b1 g
1&
13
0+
1*
#710000
b0 I
b1 i
1+
#720000
0+
0*
#725000
04
b11 <"
b10 6
#730000
b1 k
b101 q
0P
b1 j
1+
#740000
0e
b10 p
b101 r
b11 o
03
1.
b1 /
00
0+
1*
#750000
0$
b1 N
1E
0Q
1+
#760000
0+
0*
#765000
0$
b1 N
b11 "
b11 8
b11 C
b11 !
b11 7
b11 -
1,
#770000
b1 H
0$
b1 M
1+
#780000
1|
0&
0.
b10 1
b10 9
b10 y
b10 9"
12
0+
1*
#790000
b11 J
b10 N
b10 H
0$
b1 I
1+
#800000
0+
0*
#810000
bz "
bz 8
bz C
bz !
bz 7
1Z
14
0,
b101 N
1>
b11 ?
b11 O
b11 W
b11 u
1$
b11 K
b10 I
b10 M
1+
#820000
1e
b11 }
b1 !"
b1 8"
0|
1X
b1 1"
b10 ~
b1 0"
02
10
0+
1*
#830000
0Z
b0 N
0>
b110 [
b11 ]
b11 t
b101 M
b1 2"
1P
b10 m
b100 \
b11 l
1+
#840000
0+
0*
#850000
0)"
b0 H
0E
b1 4"
b101 6"
b0 M
1Q
b1 3"
1+
#860000
b10 Y
1e
b10 _
b10 s
0X
b10 n
b10 '
b10 @
b10 `
b10 v
b11 h
b11 ^
b10 g
1&
13
0+
1*
#870000
b0 I
b11 i
0;
1+
#880000
0+
0*
#885000
04
b100 <"
b11 6
#890000
b10 k
b101 q
0P
b11 j
1+
#900000
0e
b11 p
b101 r
b10 o
03
1.
b10 /
00
0+
1*
#910000
0$
b1 N
1E
0Q
1+
#920000
0+
0*
#925000
0$
b1 N
b100 "
b100 8
b100 C
b100 !
b100 7
b100 -
1,
#930000
b1 H
0$
b1 M
1+
#940000
1|
0&
0.
b11 1
b11 9
b11 y
b11 9"
12
0+
1*
#950000
b100 J
b10 N
b10 H
0$
b1 I
1+
#960000
0+
0*
#970000
bz "
bz 8
bz C
bz !
bz 7
1Z
14
0,
b101 N
1>
b100 ?
b100 O
b100 W
b100 u
1$
b100 K
b10 I
b10 M
1+
#980000
1e
b10 }
b10 !"
b10 8"
0|
1X
b11 1"
b11 ~
b10 0"
02
10
0+
1*
#990000
0Z
b0 N
0>
b111 [
b100 ]
b100 t
b101 M
b11 2"
1P
b110 m
b101 \
b100 l
1+
#1000000
0+
0*
#1010000
b0 H
0E
b10 4"
b101 6"
b0 M
1Q
b11 3"
1+
#1020000
b110 Y
1e
b11 _
b11 s
0X
b110 n
b11 '
b11 @
b11 `
b11 v
b10 h
b100 ^
b11 g
1&
13
0+
1*
#1030000
b0 I
b10 i
1+
#1040000
0+
0*
#1045000
04
b101 <"
b100 6
#1050000
b11 k
b101 q
0P
b10 j
1+
#1060000
0e
b100 p
b101 r
b110 o
03
1.
b11 /
00
0+
1*
#1070000
0$
b1 N
1E
0Q
1+
#1080000
0+
0*
#1085000
0$
b1 N
b101 "
b101 8
b101 C
b101 !
b101 7
b101 -
1,
#1090000
b1 H
0$
b1 M
1+
#1100000
1|
0&
0.
b100 1
b100 9
b100 y
b100 9"
12
0+
1*
#1110000
b101 J
b10 N
b10 H
0$
b1 I
1+
#1120000
0+
0*
#1130000
bz "
bz 8
bz C
bz !
bz 7
1Z
14
0,
b101 N
1>
b101 ?
b101 O
b101 W
b101 u
1$
b101 K
b10 I
b10 M
1+
#1140000
1e
b110 }
b11 !"
b11 8"
0|
1X
b10 1"
b100 ~
b11 0"
02
10
0+
1*
#1150000
0Z
b0 N
0>
b101 [
b101 ]
b101 t
b101 M
b10 2"
1P
b111 m
b110 \
b101 l
1+
#1160000
0+
0*
#1170000
b0 H
0E
b11 4"
b101 6"
b0 M
1Q
b10 3"
1+
#1180000
b111 Y
1e
b100 _
b100 s
0X
b111 n
b100 '
b100 @
b100 `
b100 v
b110 h
b101 ^
b100 g
1&
13
0+
1*
#1190000
b0 I
b110 i
1+
#1200000
0+
0*
#1205000
04
b110 <"
b101 6
#1210000
b100 k
b101 q
0P
b110 j
1+
#1220000
0e
b101 p
b101 r
b111 o
03
1.
b100 /
00
0+
1*
#1230000
0$
b1 N
1E
0Q
1+
#1240000
0+
0*
#1245000
0$
b1 N
b110 "
b110 8
b110 C
b110 !
b110 7
b110 -
1,
#1250000
b1 H
0$
b1 M
1+
#1260000
1|
0&
0.
b101 1
b101 9
b101 y
b101 9"
12
0+
1*
#1270000
b110 J
b10 N
b10 H
0$
b1 I
1+
#1280000
0+
0*
#1290000
bz "
bz 8
bz C
bz !
bz 7
1Z
14
0,
b101 N
1>
b110 ?
b110 O
b110 W
b110 u
1$
b110 K
b10 I
b10 M
1+
#1300000
1e
b111 }
b100 !"
b100 8"
0|
1X
b110 1"
b101 ~
b100 0"
02
10
0+
1*
#1310000
0Z
b0 N
0>
b100 [
b110 ]
b110 t
b101 M
b110 2"
1P
b101 m
b111 \
b110 l
1+
#1320000
0+
0*
#1330000
b0 H
0E
b100 4"
b101 6"
b0 M
1Q
b110 3"
1+
#1340000
b101 Y
1e
b101 _
b101 s
0X
b101 n
b101 '
b101 @
b101 `
b101 v
b111 h
b110 ^
b101 g
1&
13
0+
1*
#1350000
b0 I
b111 i
1+
#1360000
0+
0*
#1365000
04
b111 <"
b110 6
#1370000
b101 k
b101 q
0P
b111 j
1+
#1380000
0e
b110 p
b101 r
b101 o
03
1.
b101 /
00
0+
1*
#1390000
0$
b1 N
1E
0Q
1+
#1400000
0+
0*
#1405000
0$
b1 N
b111 "
b111 8
b111 C
b111 !
b111 7
b111 -
1,
#1410000
b1 H
0$
b1 M
1+
#1420000
1|
0&
0.
b110 1
b110 9
b110 y
b110 9"
12
0+
1*
#1430000
b111 J
b10 N
b10 H
0$
b1 I
1+
#1440000
0+
0*
#1450000
bz "
bz 8
bz C
bz !
bz 7
1Z
14
0,
b101 N
1>
b111 ?
b111 O
b111 W
b111 u
1$
b111 K
b10 I
b10 M
1+
#1460000
1e
b101 }
b101 !"
b101 8"
0|
1X
b111 1"
b110 ~
b101 0"
02
10
0+
1*
#1470000
0Z
b0 N
0>
b1100 [
b111 ]
b111 t
b101 M
b111 2"
1P
b100 m
b1000 \
b111 l
1+
#1480000
0+
0*
#1490000
b0 H
0E
b101 4"
b101 6"
b0 M
1Q
b111 3"
1+
#1500000
b100 Y
1e
b110 _
b110 s
0X
b100 n
b110 '
b110 @
b110 `
b110 v
b101 h
b111 ^
b110 g
1&
13
0+
1*
#1510000
b0 I
b101 i
1+
#1520000
0+
0*
#1525000
04
b1000 <"
b111 6
#1530000
b110 k
b101 q
0P
b101 j
1+
#1540000
0e
b111 p
b101 r
b100 o
03
1.
b110 /
00
0+
1*
#1550000
0$
b1 N
1E
0Q
1+
#1560000
0+
0*
#1565000
0$
b1 N
b1000 "
b1000 8
b1000 C
b1000 !
b1000 7
b1000 -
1,
#1570000
b1 H
0$
b1 M
1+
#1580000
1|
0&
0.
b111 1
b111 9
b111 y
b111 9"
12
0+
1*
#1590000
b1000 J
b10 N
b10 H
0$
b1 I
1+
#1600000
0+
0*
#1610000
bz "
bz 8
bz C
bz !
bz 7
1Z
14
0,
b101 N
1>
b1000 ?
b1000 O
b1000 W
b1000 u
1$
b1000 K
b10 I
b10 M
1+
#1620000
1e
b100 }
b110 !"
b110 8"
0|
1X
b101 1"
b111 ~
b110 0"
02
10
0+
1*
#1630000
0Z
b0 N
0>
b1101 [
b1000 ]
b1000 t
b101 M
b101 2"
1P
b1100 m
b1001 \
b1000 l
1+
#1640000
0+
0*
#1650000
b0 H
0E
b110 4"
b101 6"
b0 M
1Q
b101 3"
1+
#1660000
b1100 Y
1e
b111 _
b111 s
0X
b1100 n
b111 '
b111 @
b111 `
b111 v
b100 h
b1000 ^
b111 g
1&
13
0+
1*
#1670000
b0 I
b100 i
1+
#1680000
0+
0*
#1685000
04
b1001 <"
b1000 6
#1690000
b111 k
b101 q
0P
b100 j
1+
#1700000
0e
b1000 p
b101 r
b1100 o
03
1.
b111 /
00
0+
1*
#1710000
0$
b1 N
1E
0Q
1+
#1720000
0+
0*
#1725000
0$
b1 N
b1001 "
b1001 8
b1001 C
b1001 !
b1001 7
b1001 -
1,
#1730000
b1 H
0$
b1 M
1+
#1740000
1|
0&
0.
b1000 1
b1000 9
b1000 y
b1000 9"
12
0+
1*
#1750000
b1001 J
b10 N
b10 H
0$
b1 I
1+
#1760000
0+
0*
#1770000
bz "
bz 8
bz C
bz !
bz 7
1Z
14
0,
b101 N
1>
b1001 ?
b1001 O
b1001 W
b1001 u
1$
b1001 K
b10 I
b10 M
1+
#1780000
1e
b1100 }
b111 !"
b111 8"
0|
1X
b100 1"
b1000 ~
b111 0"
02
10
0+
1*
#1790000
0Z
b0 N
0>
b1111 [
b1001 ]
b1001 t
b101 M
b100 2"
1P
b1101 m
b1010 \
b1001 l
1+
#1800000
0+
0*
#1810000
b0 H
0E
b111 4"
b101 6"
b0 M
1Q
b100 3"
1+
#1820000
b1101 Y
1e
b1000 _
b1000 s
0X
b1101 n
b1000 '
b1000 @
b1000 `
b1000 v
b1100 h
b1001 ^
b1000 g
1&
13
0+
1*
#1830000
b0 I
b1100 i
1+
#1840000
0+
0*
#1845000
04
b1010 <"
b1001 6
#1850000
b1000 k
b101 q
0P
b1100 j
1+
#1860000
0e
b1001 p
b101 r
b1101 o
03
1.
b1000 /
00
0+
1*
#1870000
0$
b1 N
1E
0Q
1+
#1880000
0+
0*
#1885000
0$
b1 N
b1010 "
b1010 8
b1010 C
b1010 !
b1010 7
b1010 -
1,
#1890000
b1 H
0$
b1 M
1+
#1900000
1|
0&
0.
b1001 1
b1001 9
b1001 y
b1001 9"
12
0+
1*
#1910000
b1010 J
b10 N
b10 H
0$
b1 I
1+
#1920000
0+
0*
#1930000
bz "
bz 8
bz C
bz !
bz 7
1Z
14
0,
b101 N
1>
b1010 ?
b1010 O
b1010 W
b1010 u
1$
b1010 K
b10 I
b10 M
1+
#1940000
1e
b1101 }
b1000 !"
b1000 8"
0|
1X
b1100 1"
b1001 ~
b1000 0"
02
10
0+
1*
#1950000
0Z
b0 N
0>
b1110 [
b1010 ]
b1010 t
b101 M
b1100 2"
1P
b1111 m
b1011 \
b1010 l
1+
#1960000
0+
0*
#1970000
b0 H
0E
b1000 4"
b101 6"
b0 M
1Q
b1100 3"
1+
#1980000
b1111 Y
1e
b1001 _
b1001 s
0X
b1111 n
b1001 '
b1001 @
b1001 `
b1001 v
b1101 h
b1010 ^
b1001 g
1&
13
0+
1*
#1990000
b0 I
b1101 i
1+
#2000000
0+
0*
#2005000
04
b1011 <"
b1010 6
#2010000
b1001 k
b101 q
0P
b1101 j
1+
#2020000
0e
b1010 p
b101 r
b1111 o
03
1.
b1001 /
00
0+
1*
#2030000
0$
b1 N
1E
0Q
1+
#2040000
0+
0*
#2045000
0$
b1 N
b1011 "
b1011 8
b1011 C
b1011 !
b1011 7
b1011 -
1,
#2050000
b1 H
0$
b1 M
1+
#2060000
1|
0&
0.
b1010 1
b1010 9
b1010 y
b1010 9"
12
0+
1*
#2070000
b1011 J
b10 N
b10 H
0$
b1 I
1+
#2080000
0+
0*
#2090000
bz "
bz 8
bz C
bz !
bz 7
1Z
14
0,
b101 N
1>
b1011 ?
b1011 O
b1011 W
b1011 u
1$
b1011 K
b10 I
b10 M
1+
#2100000
1e
b1111 }
b1001 !"
b1001 8"
0|
1X
b1101 1"
b1010 ~
b1001 0"
02
10
0+
1*
#2110000
0Z
b0 N
0>
b1010 [
b1011 ]
b1011 t
b101 M
b1101 2"
1P
b1110 m
b1100 \
b1011 l
1+
#2120000
0+
0*
#2130000
b0 H
0E
b1001 4"
b101 6"
b0 M
1Q
b1101 3"
1+
#2140000
b1110 Y
1e
b1010 _
b1010 s
0X
b1110 n
b1010 '
b1010 @
b1010 `
b1010 v
b1111 h
b1011 ^
b1010 g
1&
13
0+
1*
#2150000
b0 I
b1111 i
1+
#2160000
0+
0*
#2165000
04
b1100 <"
b1011 6
#2170000
b1010 k
b101 q
0P
b1111 j
1+
#2180000
0e
b1011 p
b101 r
b1110 o
03
1.
b1010 /
00
0+
1*
#2190000
0$
b1 N
1E
0Q
1+
#2200000
0+
0*
#2205000
0$
b1 N
b1100 "
b1100 8
b1100 C
b1100 !
b1100 7
b1100 -
1,
#2210000
b1 H
0$
b1 M
1+
#2220000
1|
0&
0.
b1011 1
b1011 9
b1011 y
b1011 9"
12
0+
1*
#2230000
b1100 J
b10 N
b10 H
0$
b1 I
1+
#2240000
0+
0*
#2250000
bz "
bz 8
bz C
bz !
bz 7
1Z
14
0,
b101 N
1>
b1100 ?
b1100 O
b1100 W
b1100 u
1$
b1100 K
b10 I
b10 M
1+
#2260000
1e
b1110 }
b1010 !"
b1010 8"
0|
1X
b1111 1"
b1011 ~
b1010 0"
02
10
0+
1*
#2270000
0Z
b0 N
0>
b1011 [
b1100 ]
b1100 t
b101 M
b1111 2"
1P
b1010 m
b1101 \
b1100 l
1+
#2280000
0+
0*
#2290000
b0 H
0E
b1010 4"
b101 6"
b0 M
1Q
b1111 3"
1+
#2300000
b1010 Y
1e
b1011 _
b1011 s
0X
b1010 n
b1011 '
b1011 @
b1011 `
b1011 v
b1110 h
b1100 ^
b1011 g
1&
13
0+
1*
#2310000
b0 I
b1110 i
1+
#2320000
0+
0*
#2325000
04
b1101 <"
b1100 6
#2330000
b1011 k
b101 q
0P
b1110 j
1+
#2340000
0e
b1100 p
b101 r
b1010 o
03
1.
b1011 /
00
0+
1*
#2350000
0$
b1 N
1E
0Q
1+
#2360000
0+
0*
#2365000
0$
b1 N
b1101 "
b1101 8
b1101 C
b1101 !
b1101 7
b1101 -
1,
#2370000
b1 H
0$
b1 M
1+
#2380000
1|
0&
0.
b1100 1
b1100 9
b1100 y
b1100 9"
12
0+
1*
#2390000
b1101 J
b10 N
b10 H
0$
b1 I
1+
#2400000
0+
0*
#2410000
bz "
bz 8
bz C
bz !
bz 7
1Z
14
0,
b101 N
1>
b1101 ?
b1101 O
b1101 W
b1101 u
1$
b1101 K
b10 I
b10 M
1+
#2420000
1e
b1010 }
b1011 !"
b1011 8"
0|
1X
b1110 1"
b1100 ~
b1011 0"
02
10
0+
1*
#2430000
0Z
b0 N
0>
b1001 [
b1101 ]
b1101 t
b101 M
b1110 2"
1P
b1011 m
b1110 \
b1101 l
1+
#2440000
0+
0*
#2450000
b0 H
0E
b1011 4"
b101 6"
b0 M
1Q
b1110 3"
1+
#2460000
b1011 Y
1e
b1100 _
b1100 s
0X
b1011 n
b1100 '
b1100 @
b1100 `
b1100 v
b1010 h
b1101 ^
b1100 g
1&
13
0+
1*
#2470000
b0 I
b1010 i
1+
#2480000
0+
0*
#2485000
04
b1110 <"
b1101 6
#2490000
b1100 k
b101 q
0P
b1010 j
1+
#2500000
0e
b1101 p
b101 r
b1011 o
03
1.
b1100 /
00
0+
1*
#2510000
0$
b1 N
1E
0Q
1+
#2520000
0+
0*
#2525000
0$
b1 N
b1110 "
b1110 8
b1110 C
b1110 !
b1110 7
b1110 -
1,
#2530000
b1 H
0$
b1 M
1+
#2540000
1|
0&
0.
b1101 1
b1101 9
b1101 y
b1101 9"
12
0+
1*
#2550000
b1110 J
b10 N
b10 H
0$
b1 I
1+
#2560000
0+
0*
#2570000
bz "
bz 8
bz C
bz !
bz 7
1Z
14
0,
b101 N
1>
b1110 ?
b1110 O
b1110 W
b1110 u
1$
b1110 K
b10 I
b10 M
1+
#2580000
1e
b1011 }
b1100 !"
b1100 8"
0|
1X
b1010 1"
b1101 ~
b1100 0"
02
10
0+
1*
#2590000
0Z
b0 N
0>
b1000 [
b1110 ]
b1110 t
b101 M
b1010 2"
1P
b1001 m
b1111 \
b1110 l
1+
#2600000
0+
0*
#2610000
b0 H
0E
b1100 4"
b101 6"
b0 M
1Q
b1010 3"
1+
#2620000
b1001 Y
1e
b1101 _
b1101 s
0X
b1001 n
b1101 '
b1101 @
b1101 `
b1101 v
b1011 h
b1110 ^
b1101 g
1&
13
0+
1*
#2630000
b0 I
b1011 i
1+
#2640000
0+
0*
#2645000
04
b1111 <"
b1110 6
#2650000
b1101 k
b101 q
0P
b1011 j
1+
#2660000
0e
b1110 p
b101 r
b1001 o
03
1.
b1101 /
00
0+
1*
#2670000
0$
b1 N
1E
0Q
1+
#2680000
0+
0*
#2685000
0$
b1 N
b1111 "
b1111 8
b1111 C
b1111 !
b1111 7
b1111 -
1,
#2690000
b1 H
0$
b1 M
1+
#2700000
1|
0&
0.
b1110 1
b1110 9
b1110 y
b1110 9"
12
0+
1*
#2710000
b1111 J
b10 N
b10 H
0$
b1 I
1+
#2720000
0+
0*
#2730000
bz "
bz 8
bz C
bz !
bz 7
1Z
14
0,
b101 N
1>
b1111 ?
b1111 O
b1111 W
b1111 u
1$
b1111 K
b10 I
b10 M
1+
#2740000
1e
b1001 }
b1101 !"
b1101 8"
0|
1X
b1011 1"
b1110 ~
b1101 0"
02
10
0+
1*
#2750000
0Z
b0 N
0>
b11000 [
b1111 ]
b1111 t
b101 M
b1011 2"
1P
b1000 m
b10000 \
b1111 l
1+
#2760000
0+
0*
#2770000
b0 H
0E
b1101 4"
b101 6"
b0 M
1Q
b1011 3"
1+
#2780000
b1000 Y
1e
b1110 _
b1110 s
0X
b1000 n
b1110 '
b1110 @
b1110 `
b1110 v
b1001 h
b1111 ^
b1110 g
1&
13
0+
1*
#2790000
b0 I
b1001 i
1+
#2800000
0+
0*
#2805000
04
b10000 <"
b1111 6
#2810000
b1110 k
b101 q
0P
b1001 j
1+
#2820000
0e
b1111 p
b101 r
b1000 o
03
1.
b1110 /
00
0+
1*
#2830000
0$
b1 N
1E
0Q
1+
#2840000
0+
0*
#2845000
0$
b1 N
b10000 "
b10000 8
b10000 C
b10000 !
b10000 7
b10000 -
1,
#2850000
b1 H
0$
b1 M
1+
